
nios2pio_software.elf:     file format elf32-littlenios2
nios2pio_software.elf
architecture: nios2, flags 0x00000112:
EXEC_P, HAS_SYMS, D_PAGED
start address 0x00002020

Program Header:
    LOAD off    0x00001000 vaddr 0x00002000 paddr 0x00002000 align 2**12
         filesz 0x00000020 memsz 0x00000020 flags r-x
    LOAD off    0x00001020 vaddr 0x00002020 paddr 0x00002020 align 2**12
         filesz 0x00000288 memsz 0x00000288 flags r-x
    LOAD off    0x000012a8 vaddr 0x000022a8 paddr 0x000022ac align 2**12
         filesz 0x00000004 memsz 0x00000004 flags rw-
    LOAD off    0x000012b0 vaddr 0x000022b0 paddr 0x000022b0 align 2**12
         filesz 0x00000000 memsz 0x0000000c flags rw-

Sections:
Idx Name          Size      VMA       LMA       File off  Algn
  0 .entry        00000020  00002000  00002000  00001000  2**5
                  CONTENTS, ALLOC, LOAD, READONLY, CODE
  1 .text         00000288  00002020  00002020  00001020  2**2
                  CONTENTS, ALLOC, LOAD, READONLY, CODE
  2 .rwdata       00000004  000022a8  000022ac  000012a8  2**2
                  CONTENTS, ALLOC, LOAD, DATA, SMALL_DATA
  3 .bss          0000000c  000022b0  000022b0  000012b0  2**2
                  ALLOC, SMALL_DATA
  4 .comment      00000026  00000000  00000000  000012ac  2**0
                  CONTENTS, READONLY
  5 .debug_aranges 00000128  00000000  00000000  000012d8  2**3
                  CONTENTS, READONLY, DEBUGGING
  6 .debug_pubnames 00000172  00000000  00000000  00001400  2**0
                  CONTENTS, READONLY, DEBUGGING
  7 .debug_info   00000772  00000000  00000000  00001572  2**0
                  CONTENTS, READONLY, DEBUGGING
  8 .debug_abbrev 000003e0  00000000  00000000  00001ce4  2**0
                  CONTENTS, READONLY, DEBUGGING
  9 .debug_line   0000108b  00000000  00000000  000020c4  2**0
                  CONTENTS, READONLY, DEBUGGING
 10 .debug_frame  00000138  00000000  00000000  00003150  2**2
                  CONTENTS, READONLY, DEBUGGING
 11 .debug_str    000003da  00000000  00000000  00003288  2**0
                  CONTENTS, READONLY, DEBUGGING
 12 .debug_loc    0000016f  00000000  00000000  00003662  2**0
                  CONTENTS, READONLY, DEBUGGING
 13 .debug_alt_sim_info 00000030  00000000  00000000  000037d4  2**2
                  CONTENTS, READONLY, DEBUGGING
 14 .debug_ranges 00000020  00000000  00000000  00003808  2**3
                  CONTENTS, READONLY, DEBUGGING
 15 .thread_model 00000003  00000000  00000000  00004520  2**0
                  CONTENTS, READONLY
 16 .cpu          0000000c  00000000  00000000  00004523  2**0
                  CONTENTS, READONLY
 17 .qsys         00000001  00000000  00000000  0000452f  2**0
                  CONTENTS, READONLY
 18 .simulation_enabled 00000001  00000000  00000000  00004530  2**0
                  CONTENTS, READONLY
 19 .sysid_hash   00000004  00000000  00000000  00004531  2**0
                  CONTENTS, READONLY
 20 .sysid_base   00000004  00000000  00000000  00004535  2**0
                  CONTENTS, READONLY
 21 .sysid_time   00000004  00000000  00000000  00004539  2**0
                  CONTENTS, READONLY
 22 .stderr_dev   0000000b  00000000  00000000  0000453d  2**0
                  CONTENTS, READONLY
 23 .stdin_dev    0000000b  00000000  00000000  00004548  2**0
                  CONTENTS, READONLY
 24 .stdout_dev   0000000b  00000000  00000000  00004553  2**0
                  CONTENTS, READONLY
 25 .sopc_system_name 0000000d  00000000  00000000  0000455e  2**0
                  CONTENTS, READONLY
 26 .quartus_project_dir 00000026  00000000  00000000  0000456b  2**0
                  CONTENTS, READONLY
 27 .sopcinfo     00035f39  00000000  00000000  00004591  2**0
                  CONTENTS, READONLY
SYMBOL TABLE:
00002000 l    d  .entry	00000000 .entry
00002020 l    d  .text	00000000 .text
000022a8 l    d  .rwdata	00000000 .rwdata
000022b0 l    d  .bss	00000000 .bss
00000000 l    d  .comment	00000000 .comment
00000000 l    d  .debug_aranges	00000000 .debug_aranges
00000000 l    d  .debug_pubnames	00000000 .debug_pubnames
00000000 l    d  .debug_info	00000000 .debug_info
00000000 l    d  .debug_abbrev	00000000 .debug_abbrev
00000000 l    d  .debug_line	00000000 .debug_line
00000000 l    d  .debug_frame	00000000 .debug_frame
00000000 l    d  .debug_str	00000000 .debug_str
00000000 l    d  .debug_loc	00000000 .debug_loc
00000000 l    d  .debug_alt_sim_info	00000000 .debug_alt_sim_info
00000000 l    d  .debug_ranges	00000000 .debug_ranges
00002068 l       .text	00000000 alt_after_alt_main
00000000 l    df *ABS*	00000000 nios2pio_test.c
00000000 l    df *ABS*	00000000 alt_load.c
00002168 l     F .text	00000020 alt_load_section
00000000 l    df *ABS*	00000000 alt_main.c
00000000 l    df *ABS*	00000000 alt_sys_init.c
00000000 l    df *ABS*	00000000 alt_dcache_flush_all.c
00000000 l    df *ABS*	00000000 alt_icache_flush_all.c
00000000 l    df *ABS*	00000000 altera_nios2_qsys_irq.c
00000000 l    df *ABS*	00000000 alt_icache_flush.c
000021f4 g     F .text	0000002c alt_main
000022ac g       *ABS*	00000000 __flash_rwdata_start
00002000 g     F .entry	0000001c __reset
00002020 g       *ABS*	00000000 __flash_exceptions_start
000022b4 g     O .bss	00000004 alt_argv
0000a2a8 g       *ABS*	00000000 _gp
00002000 g       *ABS*	00000000 __alt_mem_onchip_memory2_0
00002270 g     F .text	00000038 alt_icache_flush
000022bc g       *ABS*	00000000 __bss_end
00002244 g     F .text	00000018 alt_dcache_flush_all
000022ac g       *ABS*	00000000 __ram_rwdata_end
000022a8 g       *ABS*	00000000 __ram_rodata_end
000022a8 g     O .rwdata	00000004 jtag_uart_0
000022bc g       *ABS*	00000000 end
00004000 g       *ABS*	00000000 __alt_stack_pointer
00002020 g     F .text	0000004c _start
00002220 g     F .text	00000004 alt_sys_init
000022a8 g       *ABS*	00000000 __ram_rwdata_start
000022a8 g       *ABS*	00000000 __ram_rodata_start
000022bc g       *ABS*	00000000 __alt_stack_base
000022b0 g       *ABS*	00000000 __bss_start
0000206c g     F .text	000000fc main
000022b8 g     O .bss	00000004 alt_envp
000022a8 g       *ABS*	00000000 __flash_rodata_start
00002224 g     F .text	00000020 alt_irq_init
000022b0 g     O .bss	00000004 alt_argc
00002020 g       *ABS*	00000000 __ram_exceptions_start
000022ac g       *ABS*	00000000 _edata
000022bc g       *ABS*	00000000 _end
00002020 g       *ABS*	00000000 __ram_exceptions_end
00002268 g     F .text	00000008 altera_nios2_qsys_irq_init
0000201c g       .entry	00000000 exit
00004000 g       *ABS*	00000000 __alt_data_end
0000201c g       .entry	00000000 _exit
0000225c g     F .text	0000000c alt_icache_flush_all
00002188 g     F .text	0000006c alt_load



Disassembly of section .entry:

00002000 <__reset>:
#if NIOS2_ICACHE_SIZE > 0 && defined(ALT_ALLOW_CODE_AT_RESET) && !defined(ALT_SIM_OPTIMIZE)
    /* Assume the instruction cache size is always a power of two. */
#if NIOS2_ICACHE_SIZE > 0x8000
    movhi r2, %hi(NIOS2_ICACHE_SIZE)
#else
    movui r2, NIOS2_ICACHE_SIZE
    2000:	00840014 	movui	r2,4096
#endif

0:
    initi r2
    2004:	1001483a 	initi	r2
    addi r2, r2, -NIOS2_ICACHE_LINE_SIZE
    2008:	10bff804 	addi	r2,r2,-32
    bgt r2, zero, 0b
    200c:	00bffd16 	blt	zero,r2,2004 <__reset+0x4>
 * Jump to the _start entry point in the .text section if reset code
 * is allowed or if optimizing for RTL simulation.
 */
#if defined(ALT_ALLOW_CODE_AT_RESET) || defined(ALT_SIM_OPTIMIZE)
    /* Jump to the _start entry point in the .text section. */
    movhi r1, %hi(_start)
    2010:	00400034 	movhi	at,0
    ori r1, r1, %lo(_start)
    2014:	08480814 	ori	at,at,8224
    jmp r1
    2018:	0800683a 	jmp	at

0000201c <_exit>:
    201c:	00000000 	call	0 <__alt_mem_onchip_memory2_0-0x2000>

Disassembly of section .text:

00002020 <_start>:

    /* Assume the data cache size is always a power of two. */
#if NIOS2_DCACHE_SIZE > 0x8000
    movhi r2, %hi(NIOS2_DCACHE_SIZE)
#else
    movui r2, NIOS2_DCACHE_SIZE
    2020:	00820014 	movui	r2,2048
#endif

0:
    initd 0(r2)
    2024:	10000033 	initd	0(r2)
    addi r2, r2, -NIOS2_DCACHE_LINE_SIZE
    2028:	10bff804 	addi	r2,r2,-32
    bgt r2, zero, 0b
    202c:	00bffd16 	blt	zero,r2,2024 <_start+0x4>
#if (NIOS2_NUM_OF_SHADOW_REG_SETS == 0)    
    /*
     * Now that the caches are initialized, set up the stack pointer.
     * The value provided by the linker is assumed to be correctly aligned.
     */
    movhi sp, %hi(__alt_stack_pointer)
    2030:	06c00034 	movhi	sp,0
    ori sp, sp, %lo(__alt_stack_pointer)
    2034:	ded00014 	ori	sp,sp,16384

    /* Set up the global pointer. */
    movhi gp, %hi(_gp)
    2038:	06800034 	movhi	gp,0
    ori gp, gp, %lo(_gp)
    203c:	d6a8aa14 	ori	gp,gp,41640
 */
#ifndef ALT_SIM_OPTIMIZE
    /* Log that the BSS is about to be cleared. */
    ALT_LOG_PUTS(alt_log_msg_bss)

    movhi r2, %hi(__bss_start)
    2040:	00800034 	movhi	r2,0
    ori r2, r2, %lo(__bss_start)
    2044:	1088ac14 	ori	r2,r2,8880

    movhi r3, %hi(__bss_end)
    2048:	00c00034 	movhi	r3,0
    ori r3, r3, %lo(__bss_end)
    204c:	18c8af14 	ori	r3,r3,8892

    beq r2, r3, 1f
    2050:	10c00326 	beq	r2,r3,2060 <_start+0x40>

0:
    stw zero, (r2)
    2054:	10000015 	stw	zero,0(r2)
    addi r2, r2, 4
    2058:	10800104 	addi	r2,r2,4
    bltu r2, r3, 0b
    205c:	10fffd36 	bltu	r2,r3,2054 <_start+0x34>
     * section aren't defined until alt_load() has been called).
     */
    mov   et, zero
#endif

    call alt_load
    2060:	00021880 	call	2188 <alt_load>

    /* Log that alt_main is about to be called. */
    ALT_LOG_PUTS(alt_log_msg_alt_main)

    /* Call the C entry point. It should never return. */
    call alt_main
    2064:	00021f40 	call	21f4 <alt_main>

00002068 <alt_after_alt_main>:

    /* Wait in infinite loop in case alt_main does return. */
alt_after_alt_main:
    br alt_after_alt_main
    2068:	003fff06 	br	2068 <alt_after_alt_main>

0000206c <main>:

int main(){
  int in, out;

  while (1) {
    in = IORD_ALTERA_AVALON_PIO_DATA(PIO_1_BASE);
    206c:	00940004 	movi	r2,20480
    2070:	10c00037 	ldwio	r3,0(r2)
    switch( in ){
    2074:	008003c4 	movi	r2,15
    2078:	10c01936 	bltu	r2,r3,20e0 <main+0x74>
    207c:	18c5883a 	add	r2,r3,r3
    2080:	1085883a 	add	r2,r2,r2
    2084:	00c00034 	movhi	r3,0
    2088:	18c82604 	addi	r3,r3,8344
    208c:	10c5883a 	add	r2,r2,r3
    2090:	10800017 	ldw	r2,0(r2)
    2094:	1000683a 	jmp	r2
    2098:	000020e8 	cmpgeui	zero,zero,131
    209c:	000020f0 	cmpltui	zero,zero,131
    20a0:	000020f8 	rdprs	zero,zero,131
    20a4:	00002100 	call	210 <__alt_mem_onchip_memory2_0-0x1df0>
    20a8:	00002108 	cmpgei	zero,zero,132
    20ac:	00002110 	cmplti	zero,zero,132
    20b0:	00002118 	cmpnei	zero,zero,132
    20b4:	00002120 	cmpeqi	zero,zero,132
    20b8:	00002128 	cmpgeui	zero,zero,132
    20bc:	00002130 	cmpltui	zero,zero,132
    20c0:	00002138 	rdprs	zero,zero,132
    20c4:	00002140 	call	214 <__alt_mem_onchip_memory2_0-0x1dec>
    20c8:	00002148 	cmpgei	zero,zero,133
    20cc:	00002150 	cmplti	zero,zero,133
    20d0:	00002158 	cmpnei	zero,zero,133
    20d4:	000020d8 	cmpnei	zero,zero,131
    20d8:	00c02384 	movi	r3,142
    20dc:	00001f06 	br	215c <main+0xf0>
    20e0:	00c03fc4 	movi	r3,255
    20e4:	00001d06 	br	215c <main+0xf0>
    20e8:	00c03004 	movi	r3,192
    20ec:	00001b06 	br	215c <main+0xf0>
      case 0x0: out = 0xc0; break;
    20f0:	00c03e44 	movi	r3,249
    20f4:	00001906 	br	215c <main+0xf0>
      case 0x1: out = 0xf9; break;
    20f8:	00c02904 	movi	r3,164
    20fc:	00001706 	br	215c <main+0xf0>
      case 0x2: out = 0xa4; break;
    2100:	00c02c04 	movi	r3,176
    2104:	00001506 	br	215c <main+0xf0>
      case 0x3: out = 0xb0; break;
    2108:	00c02644 	movi	r3,153
    210c:	00001306 	br	215c <main+0xf0>

      case 0x4: out = 0x99; break;
    2110:	00c02484 	movi	r3,146
    2114:	00001106 	br	215c <main+0xf0>
      case 0x5: out = 0x92; break;
    2118:	00c02084 	movi	r3,130
    211c:	00000f06 	br	215c <main+0xf0>
      case 0x6: out = 0x82; break;
    2120:	00c03604 	movi	r3,216
    2124:	00000d06 	br	215c <main+0xf0>
      case 0x7: out = 0xd8; break;
    2128:	00c02004 	movi	r3,128
    212c:	00000b06 	br	215c <main+0xf0>

      case 0x8: out = 0x80; break;
    2130:	00c02404 	movi	r3,144
    2134:	00000906 	br	215c <main+0xf0>
      case 0x9: out = 0x90; break;
    2138:	00c02204 	movi	r3,136
    213c:	00000706 	br	215c <main+0xf0>
      case 0xa: out = 0x88; break;
    2140:	00c020c4 	movi	r3,131
    2144:	00000506 	br	215c <main+0xf0>
      case 0xb: out = 0x83; break;
    2148:	00c03184 	movi	r3,198
    214c:	00000306 	br	215c <main+0xf0>

      case 0xc: out = 0xc6; break;
    2150:	00c02844 	movi	r3,161
    2154:	00000106 	br	215c <main+0xf0>
      case 0xd: out = 0xa1; break;
    2158:	00c02184 	movi	r3,134
      case 0xe: out = 0x86; break;
      case 0xf: out = 0x8e; break;

      default: out = 0xff; break;
    }
    IOWR_ALTERA_AVALON_PIO_DATA(PIO_0_BASE, out);
    215c:	00940404 	movi	r2,20496
    2160:	10c00035 	stwio	r3,0(r2)
    2164:	003fc106 	br	206c <main>

00002168 <alt_load_section>:

static void ALT_INLINE alt_load_section (alt_u32* from, 
                                         alt_u32* to, 
                                         alt_u32* end)
{
  if (to != from)
    2168:	2900051e 	bne	r5,r4,2180 <alt_load_section+0x18>
    216c:	f800283a 	ret
  {
    while( to != end )
    {
      *to++ = *from++;
    2170:	20800017 	ldw	r2,0(r4)
    2174:	21000104 	addi	r4,r4,4
    2178:	28800015 	stw	r2,0(r5)
    217c:	29400104 	addi	r5,r5,4
                                         alt_u32* to, 
                                         alt_u32* end)
{
  if (to != from)
  {
    while( to != end )
    2180:	29bffb1e 	bne	r5,r6,2170 <alt_load_section+0x8>
    2184:	f800283a 	ret

00002188 <alt_load>:
 * there is no bootloader, so this application is responsible for loading to
 * RAM any sections that are required.
 */  

void alt_load (void)
{
    2188:	deffff04 	addi	sp,sp,-4
  /* 
   * Copy the .rwdata section. 
   */

  alt_load_section (&__flash_rwdata_start, 
    218c:	01000034 	movhi	r4,0
    2190:	2108ab04 	addi	r4,r4,8876
    2194:	01400034 	movhi	r5,0
    2198:	2948aa04 	addi	r5,r5,8872
    219c:	01800034 	movhi	r6,0
    21a0:	3188ab04 	addi	r6,r6,8876
 * there is no bootloader, so this application is responsible for loading to
 * RAM any sections that are required.
 */  

void alt_load (void)
{
    21a4:	dfc00015 	stw	ra,0(sp)
  /* 
   * Copy the .rwdata section. 
   */

  alt_load_section (&__flash_rwdata_start, 
    21a8:	00021680 	call	2168 <alt_load_section>

  /*
   * Copy the exception handler.
   */

  alt_load_section (&__flash_exceptions_start, 
    21ac:	01000034 	movhi	r4,0
    21b0:	21080804 	addi	r4,r4,8224
    21b4:	01400034 	movhi	r5,0
    21b8:	29480804 	addi	r5,r5,8224
    21bc:	01800034 	movhi	r6,0
    21c0:	31880804 	addi	r6,r6,8224
    21c4:	00021680 	call	2168 <alt_load_section>

  /*
   * Copy the .rodata section.
   */

  alt_load_section (&__flash_rodata_start, 
    21c8:	01000034 	movhi	r4,0
    21cc:	2108aa04 	addi	r4,r4,8872
    21d0:	01400034 	movhi	r5,0
    21d4:	2948aa04 	addi	r5,r5,8872
    21d8:	01800034 	movhi	r6,0
    21dc:	3188aa04 	addi	r6,r6,8872
    21e0:	00021680 	call	2168 <alt_load_section>
  
  /*
   * Now ensure that the caches are in synch.
   */
  
  alt_dcache_flush_all();
    21e4:	00022440 	call	2244 <alt_dcache_flush_all>
  alt_icache_flush_all();
}
    21e8:	dfc00017 	ldw	ra,0(sp)
    21ec:	dec00104 	addi	sp,sp,4
  /*
   * Now ensure that the caches are in synch.
   */
  
  alt_dcache_flush_all();
  alt_icache_flush_all();
    21f0:	000225c1 	jmpi	225c <alt_icache_flush_all>

000021f4 <alt_main>:
 * devices/filesystems/components in the system; and call the entry point for
 * the users application, i.e. main().
 */

void alt_main (void)
{
    21f4:	deffff04 	addi	sp,sp,-4
#endif

  /* ALT LOG - please see HAL/sys/alt_log_printf.h for details */
  ALT_LOG_PRINT_BOOT("[alt_main.c] Entering alt_main, calling alt_irq_init.\r\n");
  /* Initialize the interrupt controller. */
  alt_irq_init (NULL);
    21f8:	0009883a 	mov	r4,zero
 * devices/filesystems/components in the system; and call the entry point for
 * the users application, i.e. main().
 */

void alt_main (void)
{
    21fc:	dfc00015 	stw	ra,0(sp)
#endif

  /* ALT LOG - please see HAL/sys/alt_log_printf.h for details */
  ALT_LOG_PRINT_BOOT("[alt_main.c] Entering alt_main, calling alt_irq_init.\r\n");
  /* Initialize the interrupt controller. */
  alt_irq_init (NULL);
    2200:	00022240 	call	2224 <alt_irq_init>
  ALT_LOG_PRINT_BOOT("[alt_main.c] Done OS Init, calling alt_sem_create.\r\n");
  ALT_SEM_CREATE (&alt_fd_list_lock, 1);

  /* Initialize the device drivers/software components. */
  ALT_LOG_PRINT_BOOT("[alt_main.c] Calling alt_sys_init.\r\n");
  alt_sys_init();
    2204:	00022200 	call	2220 <alt_sys_init>
   */

  ALT_LOG_PRINT_BOOT("[alt_main.c] Calling main.\r\n");

#ifdef ALT_NO_EXIT
  main (alt_argc, alt_argv, alt_envp);
    2208:	d1200217 	ldw	r4,-32760(gp)
    220c:	d1600317 	ldw	r5,-32756(gp)
    2210:	d1a00417 	ldw	r6,-32752(gp)
  close(STDOUT_FILENO);
  exit (result);
#endif

  ALT_LOG_PRINT_BOOT("[alt_main.c] After main - we should not be here?.\r\n");
}
    2214:	dfc00017 	ldw	ra,0(sp)
    2218:	dec00104 	addi	sp,sp,4
   */

  ALT_LOG_PRINT_BOOT("[alt_main.c] Calling main.\r\n");

#ifdef ALT_NO_EXIT
  main (alt_argc, alt_argv, alt_envp);
    221c:	000206c1 	jmpi	206c <main>

00002220 <alt_sys_init>:

void alt_sys_init( void )
{
    ALTERA_AVALON_JTAG_UART_INIT ( JTAG_UART_0, jtag_uart_0);
    ALTERA_AVALON_SYSID_QSYS_INIT ( SYSID, sysid);
}
    2220:	f800283a 	ret

00002224 <alt_irq_init>:
 * The "base" parameter is ignored and only
 * present for backwards-compatibility.
 */

void alt_irq_init ( const void* base )
{
    2224:	deffff04 	addi	sp,sp,-4
    2228:	dfc00015 	stw	ra,0(sp)
    ALTERA_NIOS2_QSYS_IRQ_INIT ( NIOS2_QSYS_0, nios2_qsys_0);
    222c:	00022680 	call	2268 <altera_nios2_qsys_irq_init>
 * alt_irq_cpu_enable_interrupts() enables the CPU to start taking interrupts.
 */
static ALT_INLINE void ALT_ALWAYS_INLINE 
       alt_irq_cpu_enable_interrupts ()
{
    NIOS2_WRITE_STATUS(NIOS2_STATUS_PIE_MSK
    2230:	00800044 	movi	r2,1
    2234:	1001703a 	wrctl	status,r2
    alt_irq_cpu_enable_interrupts();
}
    2238:	dfc00017 	ldw	ra,0(sp)
    223c:	dec00104 	addi	sp,sp,4
    2240:	f800283a 	ret

00002244 <alt_dcache_flush_all>:
/*
 * alt_dcache_flush_all() is called to flush the entire data cache.
 */

void alt_dcache_flush_all (void)
{
    2244:	0005883a 	mov	r2,zero
    2248:	00c20004 	movi	r3,2048
#if NIOS2_DCACHE_SIZE > 0
  char* i;
  
  for (i = (char*) 0; i < (char*) NIOS2_DCACHE_SIZE; i+= NIOS2_DCACHE_LINE_SIZE)
  { 
    __asm__ volatile ("flushd (%0)" :: "r" (i));
    224c:	1000003b 	flushd	0(r2)
void alt_dcache_flush_all (void)
{
#if NIOS2_DCACHE_SIZE > 0
  char* i;
  
  for (i = (char*) 0; i < (char*) NIOS2_DCACHE_SIZE; i+= NIOS2_DCACHE_LINE_SIZE)
    2250:	10800804 	addi	r2,r2,32
    2254:	10fffd1e 	bne	r2,r3,224c <alt_dcache_flush_all+0x8>
  { 
    __asm__ volatile ("flushd (%0)" :: "r" (i));
  }
#endif /* NIOS2_DCACHE_SIZE > 0 */
}
    2258:	f800283a 	ret

0000225c <alt_icache_flush_all>:
 */

void alt_icache_flush_all (void)
{
#if NIOS2_ICACHE_SIZE > 0
  alt_icache_flush (0, NIOS2_ICACHE_SIZE);
    225c:	0009883a 	mov	r4,zero
    2260:	01440004 	movi	r5,4096
    2264:	00022701 	jmpi	2270 <alt_icache_flush>

00002268 <altera_nios2_qsys_irq_init>:
 * To initialize the internal interrupt controller, just clear the IENABLE
 * register so that all possible IRQs are disabled.
 */
void altera_nios2_qsys_irq_init(void) 
{
    NIOS2_WRITE_IENABLE(0);
    2268:	000170fa 	wrctl	ienable,zero
}
    226c:	f800283a 	ret

00002270 <alt_icache_flush>:
  if (len > NIOS2_ICACHE_SIZE)
  {
    len = NIOS2_ICACHE_SIZE;
  }

  end = ((char*) start) + len;
    2270:	00840004 	movi	r2,4096
    2274:	2007883a 	mov	r3,r4
    2278:	1140012e 	bgeu	r2,r5,2280 <alt_icache_flush+0x10>
    227c:	100b883a 	mov	r5,r2
    2280:	194b883a 	add	r5,r3,r5
    2284:	00000206 	br	2290 <alt_icache_flush+0x20>

  for (i = start; i < end; i+= NIOS2_ICACHE_LINE_SIZE)
  { 
    __asm__ volatile ("flushi %0" :: "r" (i)); 
    2288:	1800603a 	flushi	r3
    len = NIOS2_ICACHE_SIZE;
  }

  end = ((char*) start) + len;

  for (i = start; i < end; i+= NIOS2_ICACHE_LINE_SIZE)
    228c:	18c00804 	addi	r3,r3,32
    2290:	197ffd36 	bltu	r3,r5,2288 <alt_icache_flush+0x18>
   * For an unaligned flush request, we've got one more line left.
   * Note that this is dependent on NIOS2_ICACHE_LINE_SIZE to be a 
   * multiple of 2 (which it always is).
   */

  if (((alt_u32) start) & (NIOS2_ICACHE_LINE_SIZE - 1))
    2294:	208007cc 	andi	r2,r4,31
    2298:	10000126 	beq	r2,zero,22a0 <alt_icache_flush+0x30>
  {
    __asm__ volatile ("flushi %0" :: "r" (i));
    229c:	1800603a 	flushi	r3
  /* 
   * Having flushed the cache, flush any stale instructions in the 
   * pipeline 
   */

  __asm__ volatile ("flushp");
    22a0:	0000203a 	flushp

#endif /* NIOS2_ICACHE_SIZE > 0 */
}
    22a4:	f800283a 	ret
