
digit_clock.elf:     file format elf32-littlenios2
digit_clock.elf
architecture: nios2, flags 0x00000112:
EXEC_P, HAS_SYMS, D_PAGED
start address 0x00002020

Program Header:
    LOAD off    0x00001000 vaddr 0x00002000 paddr 0x00002000 align 2**12
         filesz 0x00000020 memsz 0x00000020 flags r-x
    LOAD off    0x00001020 vaddr 0x00002020 paddr 0x00002020 align 2**12
         filesz 0x00000588 memsz 0x00000588 flags r-x
    LOAD off    0x000015a8 vaddr 0x000025a8 paddr 0x000025ac align 2**12
         filesz 0x00000004 memsz 0x00000004 flags rw-
    LOAD off    0x000015b0 vaddr 0x000025b0 paddr 0x000025b0 align 2**12
         filesz 0x00000000 memsz 0x0000000c flags rw-

Sections:
Idx Name          Size      VMA       LMA       File off  Algn
  0 .entry        00000020  00002000  00002000  00001000  2**5
                  CONTENTS, ALLOC, LOAD, READONLY, CODE
  1 .text         00000588  00002020  00002020  00001020  2**2
                  CONTENTS, ALLOC, LOAD, READONLY, CODE
  2 .rwdata       00000004  000025a8  000025ac  000015a8  2**2
                  CONTENTS, ALLOC, LOAD, DATA, SMALL_DATA
  3 .bss          0000000c  000025b0  000025b0  000015b0  2**2
                  ALLOC, SMALL_DATA
  4 .comment      00000026  00000000  00000000  000015ac  2**0
                  CONTENTS, READONLY
  5 .debug_aranges 00000188  00000000  00000000  000015d8  2**3
                  CONTENTS, READONLY, DEBUGGING
  6 .debug_pubnames 00000209  00000000  00000000  00001760  2**0
                  CONTENTS, READONLY, DEBUGGING
  7 .debug_info   00000b87  00000000  00000000  00001969  2**0
                  CONTENTS, READONLY, DEBUGGING
  8 .debug_abbrev 00000626  00000000  00000000  000024f0  2**0
                  CONTENTS, READONLY, DEBUGGING
  9 .debug_line   0000181d  00000000  00000000  00002b16  2**0
                  CONTENTS, READONLY, DEBUGGING
 10 .debug_frame  0000020c  00000000  00000000  00004334  2**2
                  CONTENTS, READONLY, DEBUGGING
 11 .debug_str    00000581  00000000  00000000  00004540  2**0
                  CONTENTS, READONLY, DEBUGGING
 12 .debug_loc    00000473  00000000  00000000  00004ac1  2**0
                  CONTENTS, READONLY, DEBUGGING
 13 .debug_alt_sim_info 00000060  00000000  00000000  00004f34  2**2
                  CONTENTS, READONLY, DEBUGGING
 14 .debug_ranges 00000020  00000000  00000000  00004f98  2**3
                  CONTENTS, READONLY, DEBUGGING
 15 .thread_model 00000003  00000000  00000000  00005dda  2**0
                  CONTENTS, READONLY
 16 .cpu          0000000c  00000000  00000000  00005ddd  2**0
                  CONTENTS, READONLY
 17 .qsys         00000001  00000000  00000000  00005de9  2**0
                  CONTENTS, READONLY
 18 .simulation_enabled 00000001  00000000  00000000  00005dea  2**0
                  CONTENTS, READONLY
 19 .sysid_hash   00000004  00000000  00000000  00005deb  2**0
                  CONTENTS, READONLY
 20 .sysid_base   00000004  00000000  00000000  00005def  2**0
                  CONTENTS, READONLY
 21 .sysid_time   00000004  00000000  00000000  00005df3  2**0
                  CONTENTS, READONLY
 22 .stderr_dev   0000000b  00000000  00000000  00005df7  2**0
                  CONTENTS, READONLY
 23 .stdin_dev    0000000b  00000000  00000000  00005e02  2**0
                  CONTENTS, READONLY
 24 .stdout_dev   0000000b  00000000  00000000  00005e0d  2**0
                  CONTENTS, READONLY
 25 .sopc_system_name 0000000d  00000000  00000000  00005e18  2**0
                  CONTENTS, READONLY
 26 .quartus_project_dir 00000026  00000000  00000000  00005e25  2**0
                  CONTENTS, READONLY
 27 .sopcinfo     00035f39  00000000  00000000  00005e4b  2**0
                  CONTENTS, READONLY
SYMBOL TABLE:
00002000 l    d  .entry	00000000 .entry
00002020 l    d  .text	00000000 .text
000025a8 l    d  .rwdata	00000000 .rwdata
000025b0 l    d  .bss	00000000 .bss
00000000 l    d  .comment	00000000 .comment
00000000 l    d  .debug_aranges	00000000 .debug_aranges
00000000 l    d  .debug_pubnames	00000000 .debug_pubnames
00000000 l    d  .debug_info	00000000 .debug_info
00000000 l    d  .debug_abbrev	00000000 .debug_abbrev
00000000 l    d  .debug_line	00000000 .debug_line
00000000 l    d  .debug_frame	00000000 .debug_frame
00000000 l    d  .debug_str	00000000 .debug_str
00000000 l    d  .debug_loc	00000000 .debug_loc
00000000 l    d  .debug_alt_sim_info	00000000 .debug_alt_sim_info
00000000 l    d  .debug_ranges	00000000 .debug_ranges
00002068 l       .text	00000000 alt_after_alt_main
00000000 l    df *ABS*	00000000 digit_clock.c
00000000 l    df *ABS*	00000000 lib2-divmod.c
0000229c l     F .text	0000007c udivmodsi4
00000000 l    df *ABS*	00000000 alt_load.c
000023e8 l     F .text	00000020 alt_load_section
00000000 l    df *ABS*	00000000 alt_main.c
00000000 l    df *ABS*	00000000 alt_usleep.c
00000000 l    df *ABS*	00000000 alt_sys_init.c
00000000 l    df *ABS*	00000000 alt_busy_sleep.c
00000000 l    df *ABS*	00000000 alt_dcache_flush_all.c
00000000 l    df *ABS*	00000000 alt_icache_flush_all.c
00000000 l    df *ABS*	00000000 altera_nios2_qsys_irq.c
00000000 l    df *ABS*	00000000 alt_icache_flush.c
00002474 g     F .text	0000002c alt_main
000025ac g       *ABS*	00000000 __flash_rwdata_start
00002000 g     F .entry	0000001c __reset
00002020 g       *ABS*	00000000 __flash_exceptions_start
000025b4 g     O .bss	00000004 alt_argv
0000a5a8 g       *ABS*	00000000 _gp
000024a0 g     F .text	00000004 usleep
00002000 g       *ABS*	00000000 __alt_mem_onchip_memory2_0
000023d8 g     F .text	00000008 __udivsi3
00002570 g     F .text	00000038 alt_icache_flush
000025bc g       *ABS*	00000000 __bss_end
00002544 g     F .text	00000018 alt_dcache_flush_all
000025ac g       *ABS*	00000000 __ram_rwdata_end
000025a8 g       *ABS*	00000000 __ram_rodata_end
000025a8 g     O .rwdata	00000004 jtag_uart_0
000023e0 g     F .text	00000008 __umodsi3
000025bc g       *ABS*	00000000 end
00004000 g       *ABS*	00000000 __alt_stack_pointer
00002020 g     F .text	0000004c _start
000024a4 g     F .text	00000004 alt_sys_init
000025a8 g       *ABS*	00000000 __ram_rwdata_start
000025a8 g       *ABS*	00000000 __ram_rodata_start
000024c8 g     F .text	0000007c alt_busy_sleep
000025bc g       *ABS*	00000000 __alt_stack_base
0000206c g     F .text	000000ec show_LCD
000025b0 g       *ABS*	00000000 __bss_start
00002158 g     F .text	00000144 main
000025b8 g     O .bss	00000004 alt_envp
00002318 g     F .text	00000060 __divsi3
000025a8 g       *ABS*	00000000 __flash_rodata_start
000024a8 g     F .text	00000020 alt_irq_init
000025b0 g     O .bss	00000004 alt_argc
00002020 g       *ABS*	00000000 __ram_exceptions_start
000025ac g       *ABS*	00000000 _edata
000025bc g       *ABS*	00000000 _end
00002020 g       *ABS*	00000000 __ram_exceptions_end
00002568 g     F .text	00000008 altera_nios2_qsys_irq_init
0000201c g       .entry	00000000 exit
00002378 g     F .text	00000060 __modsi3
00004000 g       *ABS*	00000000 __alt_data_end
0000201c g       .entry	00000000 _exit
0000255c g     F .text	0000000c alt_icache_flush_all
00002408 g     F .text	0000006c alt_load



Disassembly of section .entry:

00002000 <__reset>:
#if NIOS2_ICACHE_SIZE > 0 && defined(ALT_ALLOW_CODE_AT_RESET) && !defined(ALT_SIM_OPTIMIZE)
    /* Assume the instruction cache size is always a power of two. */
#if NIOS2_ICACHE_SIZE > 0x8000
    movhi r2, %hi(NIOS2_ICACHE_SIZE)
#else
    movui r2, NIOS2_ICACHE_SIZE
    2000:	00840014 	movui	r2,4096
#endif

0:
    initi r2
    2004:	1001483a 	initi	r2
    addi r2, r2, -NIOS2_ICACHE_LINE_SIZE
    2008:	10bff804 	addi	r2,r2,-32
    bgt r2, zero, 0b
    200c:	00bffd16 	blt	zero,r2,2004 <__reset+0x4>
 * Jump to the _start entry point in the .text section if reset code
 * is allowed or if optimizing for RTL simulation.
 */
#if defined(ALT_ALLOW_CODE_AT_RESET) || defined(ALT_SIM_OPTIMIZE)
    /* Jump to the _start entry point in the .text section. */
    movhi r1, %hi(_start)
    2010:	00400034 	movhi	at,0
    ori r1, r1, %lo(_start)
    2014:	08480814 	ori	at,at,8224
    jmp r1
    2018:	0800683a 	jmp	at

0000201c <_exit>:
    201c:	00000000 	call	0 <__alt_mem_onchip_memory2_0-0x2000>

Disassembly of section .text:

00002020 <_start>:

    /* Assume the data cache size is always a power of two. */
#if NIOS2_DCACHE_SIZE > 0x8000
    movhi r2, %hi(NIOS2_DCACHE_SIZE)
#else
    movui r2, NIOS2_DCACHE_SIZE
    2020:	00820014 	movui	r2,2048
#endif

0:
    initd 0(r2)
    2024:	10000033 	initd	0(r2)
    addi r2, r2, -NIOS2_DCACHE_LINE_SIZE
    2028:	10bff804 	addi	r2,r2,-32
    bgt r2, zero, 0b
    202c:	00bffd16 	blt	zero,r2,2024 <_start+0x4>
#if (NIOS2_NUM_OF_SHADOW_REG_SETS == 0)    
    /*
     * Now that the caches are initialized, set up the stack pointer.
     * The value provided by the linker is assumed to be correctly aligned.
     */
    movhi sp, %hi(__alt_stack_pointer)
    2030:	06c00034 	movhi	sp,0
    ori sp, sp, %lo(__alt_stack_pointer)
    2034:	ded00014 	ori	sp,sp,16384

    /* Set up the global pointer. */
    movhi gp, %hi(_gp)
    2038:	06800034 	movhi	gp,0
    ori gp, gp, %lo(_gp)
    203c:	d6a96a14 	ori	gp,gp,42408
 */
#ifndef ALT_SIM_OPTIMIZE
    /* Log that the BSS is about to be cleared. */
    ALT_LOG_PUTS(alt_log_msg_bss)

    movhi r2, %hi(__bss_start)
    2040:	00800034 	movhi	r2,0
    ori r2, r2, %lo(__bss_start)
    2044:	10896c14 	ori	r2,r2,9648

    movhi r3, %hi(__bss_end)
    2048:	00c00034 	movhi	r3,0
    ori r3, r3, %lo(__bss_end)
    204c:	18c96f14 	ori	r3,r3,9660

    beq r2, r3, 1f
    2050:	10c00326 	beq	r2,r3,2060 <_start+0x40>

0:
    stw zero, (r2)
    2054:	10000015 	stw	zero,0(r2)
    addi r2, r2, 4
    2058:	10800104 	addi	r2,r2,4
    bltu r2, r3, 0b
    205c:	10fffd36 	bltu	r2,r3,2054 <_start+0x34>
     * section aren't defined until alt_load() has been called).
     */
    mov   et, zero
#endif

    call alt_load
    2060:	00024080 	call	2408 <alt_load>

    /* Log that alt_main is about to be called. */
    ALT_LOG_PUTS(alt_log_msg_alt_main)

    /* Call the C entry point. It should never return. */
    call alt_main
    2064:	00024740 	call	2474 <alt_main>

00002068 <alt_after_alt_main>:

    /* Wait in infinite loop in case alt_main does return. */
alt_after_alt_main:
    br alt_after_alt_main
    2068:	003fff06 	br	2068 <alt_after_alt_main>

0000206c <show_LCD>:
#include "system.h"
#include "altera_avalon_pio_regs.h"

int show_LCD (int num) {
	int out;
  switch( num ){
    206c:	008003c4 	movi	r2,15
    2070:	11001936 	bltu	r2,r4,20d8 <show_LCD+0x6c>
    2074:	2105883a 	add	r2,r4,r4
    2078:	1085883a 	add	r2,r2,r2
    207c:	00c00034 	movhi	r3,0
    2080:	18c82404 	addi	r3,r3,8336
    2084:	10c5883a 	add	r2,r2,r3
    2088:	10800017 	ldw	r2,0(r2)
    208c:	1000683a 	jmp	r2
    2090:	000020e0 	cmpeqi	zero,zero,131
    2094:	000020e8 	cmpgeui	zero,zero,131
    2098:	000020f0 	cmpltui	zero,zero,131
    209c:	000020f8 	rdprs	zero,zero,131
    20a0:	00002100 	call	210 <__alt_mem_onchip_memory2_0-0x1df0>
    20a4:	00002108 	cmpgei	zero,zero,132
    20a8:	00002110 	cmplti	zero,zero,132
    20ac:	00002118 	cmpnei	zero,zero,132
    20b0:	00002120 	cmpeqi	zero,zero,132
    20b4:	00002128 	cmpgeui	zero,zero,132
    20b8:	00002130 	cmpltui	zero,zero,132
    20bc:	00002138 	rdprs	zero,zero,132
    20c0:	00002140 	call	214 <__alt_mem_onchip_memory2_0-0x1dec>
    20c4:	00002148 	cmpgei	zero,zero,133
    20c8:	00002150 	cmplti	zero,zero,133
    20cc:	000020d0 	cmplti	zero,zero,131
    20d0:	00802384 	movi	r2,142
    20d4:	f800283a 	ret
    20d8:	00803fc4 	movi	r2,255
    20dc:	f800283a 	ret
    20e0:	00803004 	movi	r2,192
    20e4:	f800283a 	ret
    case 0x0: out = 0xc0; break;
    20e8:	00803e44 	movi	r2,249
    20ec:	f800283a 	ret
    case 0x1: out = 0xf9; break;
    20f0:	00802904 	movi	r2,164
    20f4:	f800283a 	ret
    case 0x2: out = 0xa4; break;
    20f8:	00802c04 	movi	r2,176
    20fc:	f800283a 	ret
    case 0x3: out = 0xb0; break;
    2100:	00802644 	movi	r2,153
    2104:	f800283a 	ret
    case 0x4: out = 0x99; break;
    2108:	00802484 	movi	r2,146
    210c:	f800283a 	ret
    case 0x5: out = 0x92; break;
    2110:	00802084 	movi	r2,130
    2114:	f800283a 	ret
    case 0x6: out = 0x82; break;
    2118:	00803604 	movi	r2,216
    211c:	f800283a 	ret
    case 0x7: out = 0xd8; break;
    2120:	00802004 	movi	r2,128
    2124:	f800283a 	ret
    case 0x8: out = 0x80; break;
    2128:	00802404 	movi	r2,144
    212c:	f800283a 	ret
    case 0x9: out = 0x90; break;
    2130:	00802204 	movi	r2,136
    2134:	f800283a 	ret
    case 0xa: out = 0x88; break;
    2138:	008020c4 	movi	r2,131
    213c:	f800283a 	ret
    case 0xb: out = 0x83; break;
    2140:	00803184 	movi	r2,198
    2144:	f800283a 	ret
    case 0xc: out = 0xc6; break;
    2148:	00802844 	movi	r2,161
    214c:	f800283a 	ret
    case 0xd: out = 0xa1; break;
    2150:	00802184 	movi	r2,134
    case 0xe: out = 0x86; break;
    case 0xf: out = 0x8e; break;
    default: out = 0xff; break;
  }
  return out;
}
    2154:	f800283a 	ret

00002158 <main>:

int main(){
    2158:	defffd04 	addi	sp,sp,-12
    215c:	dc000015 	stw	r16,0(sp)
    2160:	dfc00215 	stw	ra,8(sp)
    2164:	dc400115 	stw	r17,4(sp)
    2168:	0021883a 	mov	r16,zero
  int clock_count = 0;



  while (1) {
	usleep(1000000);
    216c:	010003f4 	movhi	r4,15
    2170:	21109004 	addi	r4,r4,16960
    2174:	00024a00 	call	24a0 <usleep>

    in_reset = IORD_ALTERA_AVALON_PIO_DATA(PIO_1_BASE) & 0x01;
    2178:	00940004 	movi	r2,20480
    217c:	14400037 	ldwio	r17,0(r2)
    in_stop_start = IORD_ALTERA_AVALON_PIO_DATA(PIO_1_BASE) & 0x02;
    2180:	10800037 	ldwio	r2,0(r2)

	if(!in_stop_start){
    2184:	1080008c 	andi	r2,r2,2
    2188:	1000041e 	bne	r2,zero,219c <main+0x44>
	  clock_count = (clock_count+1) % 10;
    218c:	81000044 	addi	r4,r16,1
    2190:	01400284 	movi	r5,10
    2194:	00023780 	call	2378 <__modsi3>
    2198:	1021883a 	mov	r16,r2
	}

	if(in_reset){
    219c:	8880004c 	andi	r2,r17,1
    21a0:	10001d1e 	bne	r2,zero,2218 <main+0xc0>
#include "system.h"
#include "altera_avalon_pio_regs.h"

int show_LCD (int num) {
	int out;
  switch( num ){
    21a4:	008003c4 	movi	r2,15
    21a8:	14001936 	bltu	r2,r16,2210 <main+0xb8>
    21ac:	8405883a 	add	r2,r16,r16
    21b0:	1085883a 	add	r2,r2,r2
    21b4:	00c00034 	movhi	r3,0
    21b8:	18c87204 	addi	r3,r3,8648
    21bc:	10c5883a 	add	r2,r2,r3
    21c0:	10800017 	ldw	r2,0(r2)
    21c4:	1000683a 	jmp	r2
    21c8:	0000221c 	xori	zero,zero,136
    21cc:	00002224 	muli	zero,zero,136
    21d0:	0000222c 	andhi	zero,zero,136
    21d4:	00002234 	movhi	zero,136
    21d8:	0000223c 	xorhi	zero,zero,136
    21dc:	00002244 	movi	zero,137
    21e0:	0000224c 	andi	zero,zero,137
    21e4:	00002254 	movui	zero,137
    21e8:	0000225c 	xori	zero,zero,137
    21ec:	00002264 	muli	zero,zero,137
    21f0:	0000226c 	andhi	zero,zero,137
    21f4:	00002274 	movhi	zero,137
    21f8:	0000227c 	xorhi	zero,zero,137
    21fc:	00002284 	movi	zero,138
    2200:	0000228c 	andi	zero,zero,138
    2204:	00002208 	cmpgei	zero,zero,136
    2208:	00c02384 	movi	r3,142
    220c:	00002006 	br	2290 <main+0x138>
    2210:	00c03fc4 	movi	r3,255
    2214:	00001e06 	br	2290 <main+0x138>
    2218:	0021883a 	mov	r16,zero
    221c:	00c03004 	movi	r3,192
    2220:	00001b06 	br	2290 <main+0x138>
    2224:	00c03e44 	movi	r3,249
    2228:	00001906 	br	2290 <main+0x138>
    222c:	00c02904 	movi	r3,164
    2230:	00001706 	br	2290 <main+0x138>
    2234:	00c02c04 	movi	r3,176
    2238:	00001506 	br	2290 <main+0x138>
    223c:	00c02644 	movi	r3,153
    2240:	00001306 	br	2290 <main+0x138>
    2244:	00c02484 	movi	r3,146
    2248:	00001106 	br	2290 <main+0x138>
    224c:	00c02084 	movi	r3,130
    2250:	00000f06 	br	2290 <main+0x138>
    2254:	00c03604 	movi	r3,216
    2258:	00000d06 	br	2290 <main+0x138>
    225c:	00c02004 	movi	r3,128
    2260:	00000b06 	br	2290 <main+0x138>
    2264:	00c02404 	movi	r3,144
    2268:	00000906 	br	2290 <main+0x138>
    226c:	00c02204 	movi	r3,136
    2270:	00000706 	br	2290 <main+0x138>
    2274:	00c020c4 	movi	r3,131
    2278:	00000506 	br	2290 <main+0x138>
    227c:	00c03184 	movi	r3,198
    2280:	00000306 	br	2290 <main+0x138>
    2284:	00c02844 	movi	r3,161
    2288:	00000106 	br	2290 <main+0x138>
    228c:	00c02184 	movi	r3,134
	if(in_reset){
	  clock_count = 0;
	}

    segment_led_out = show_LCD(clock_count);
    IOWR_ALTERA_AVALON_PIO_DATA(PIO_0_BASE, segment_led_out);
    2290:	00940404 	movi	r2,20496
    2294:	10c00035 	stwio	r3,0(r2)
    2298:	003fb406 	br	216c <main+0x14>

0000229c <udivmodsi4>:
    229c:	29001b2e 	bgeu	r5,r4,230c <udivmodsi4+0x70>
    22a0:	28001a16 	blt	r5,zero,230c <udivmodsi4+0x70>
    22a4:	00800044 	movi	r2,1
    22a8:	0007883a 	mov	r3,zero
    22ac:	01c007c4 	movi	r7,31
    22b0:	00000306 	br	22c0 <udivmodsi4+0x24>
    22b4:	19c01326 	beq	r3,r7,2304 <udivmodsi4+0x68>
    22b8:	18c00044 	addi	r3,r3,1
    22bc:	28000416 	blt	r5,zero,22d0 <udivmodsi4+0x34>
    22c0:	294b883a 	add	r5,r5,r5
    22c4:	1085883a 	add	r2,r2,r2
    22c8:	293ffa36 	bltu	r5,r4,22b4 <udivmodsi4+0x18>
    22cc:	10000d26 	beq	r2,zero,2304 <udivmodsi4+0x68>
    22d0:	0007883a 	mov	r3,zero
    22d4:	21400236 	bltu	r4,r5,22e0 <udivmodsi4+0x44>
    22d8:	2149c83a 	sub	r4,r4,r5
    22dc:	1886b03a 	or	r3,r3,r2
    22e0:	1004d07a 	srli	r2,r2,1
    22e4:	280ad07a 	srli	r5,r5,1
    22e8:	103ffa1e 	bne	r2,zero,22d4 <udivmodsi4+0x38>
    22ec:	30000226 	beq	r6,zero,22f8 <udivmodsi4+0x5c>
    22f0:	2005883a 	mov	r2,r4
    22f4:	f800283a 	ret
    22f8:	1809883a 	mov	r4,r3
    22fc:	2005883a 	mov	r2,r4
    2300:	f800283a 	ret
    2304:	0007883a 	mov	r3,zero
    2308:	003ff806 	br	22ec <udivmodsi4+0x50>
    230c:	00800044 	movi	r2,1
    2310:	0007883a 	mov	r3,zero
    2314:	003fef06 	br	22d4 <udivmodsi4+0x38>

00002318 <__divsi3>:
    2318:	defffe04 	addi	sp,sp,-8
    231c:	dc000015 	stw	r16,0(sp)
    2320:	dfc00115 	stw	ra,4(sp)
    2324:	0021883a 	mov	r16,zero
    2328:	20000c16 	blt	r4,zero,235c <__divsi3+0x44>
    232c:	000d883a 	mov	r6,zero
    2330:	28000e16 	blt	r5,zero,236c <__divsi3+0x54>
    2334:	000229c0 	call	229c <udivmodsi4>
    2338:	1007883a 	mov	r3,r2
    233c:	8005003a 	cmpeq	r2,r16,zero
    2340:	1000011e 	bne	r2,zero,2348 <__divsi3+0x30>
    2344:	00c7c83a 	sub	r3,zero,r3
    2348:	1805883a 	mov	r2,r3
    234c:	dfc00117 	ldw	ra,4(sp)
    2350:	dc000017 	ldw	r16,0(sp)
    2354:	dec00204 	addi	sp,sp,8
    2358:	f800283a 	ret
    235c:	0109c83a 	sub	r4,zero,r4
    2360:	04000044 	movi	r16,1
    2364:	000d883a 	mov	r6,zero
    2368:	283ff20e 	bge	r5,zero,2334 <__divsi3+0x1c>
    236c:	014bc83a 	sub	r5,zero,r5
    2370:	8021003a 	cmpeq	r16,r16,zero
    2374:	003fef06 	br	2334 <__divsi3+0x1c>

00002378 <__modsi3>:
    2378:	deffff04 	addi	sp,sp,-4
    237c:	dfc00015 	stw	ra,0(sp)
    2380:	01800044 	movi	r6,1
    2384:	2807883a 	mov	r3,r5
    2388:	20000416 	blt	r4,zero,239c <__modsi3+0x24>
    238c:	28000c16 	blt	r5,zero,23c0 <__modsi3+0x48>
    2390:	dfc00017 	ldw	ra,0(sp)
    2394:	dec00104 	addi	sp,sp,4
    2398:	000229c1 	jmpi	229c <udivmodsi4>
    239c:	0109c83a 	sub	r4,zero,r4
    23a0:	28000b16 	blt	r5,zero,23d0 <__modsi3+0x58>
    23a4:	180b883a 	mov	r5,r3
    23a8:	01800044 	movi	r6,1
    23ac:	000229c0 	call	229c <udivmodsi4>
    23b0:	0085c83a 	sub	r2,zero,r2
    23b4:	dfc00017 	ldw	ra,0(sp)
    23b8:	dec00104 	addi	sp,sp,4
    23bc:	f800283a 	ret
    23c0:	014bc83a 	sub	r5,zero,r5
    23c4:	dfc00017 	ldw	ra,0(sp)
    23c8:	dec00104 	addi	sp,sp,4
    23cc:	000229c1 	jmpi	229c <udivmodsi4>
    23d0:	0147c83a 	sub	r3,zero,r5
    23d4:	003ff306 	br	23a4 <__modsi3+0x2c>

000023d8 <__udivsi3>:
    23d8:	000d883a 	mov	r6,zero
    23dc:	000229c1 	jmpi	229c <udivmodsi4>

000023e0 <__umodsi3>:
    23e0:	01800044 	movi	r6,1
    23e4:	000229c1 	jmpi	229c <udivmodsi4>

000023e8 <alt_load_section>:

static void ALT_INLINE alt_load_section (alt_u32* from, 
                                         alt_u32* to, 
                                         alt_u32* end)
{
  if (to != from)
    23e8:	2900051e 	bne	r5,r4,2400 <alt_load_section+0x18>
    23ec:	f800283a 	ret
  {
    while( to != end )
    {
      *to++ = *from++;
    23f0:	20800017 	ldw	r2,0(r4)
    23f4:	21000104 	addi	r4,r4,4
    23f8:	28800015 	stw	r2,0(r5)
    23fc:	29400104 	addi	r5,r5,4
                                         alt_u32* to, 
                                         alt_u32* end)
{
  if (to != from)
  {
    while( to != end )
    2400:	29bffb1e 	bne	r5,r6,23f0 <alt_load_section+0x8>
    2404:	f800283a 	ret

00002408 <alt_load>:
 * there is no bootloader, so this application is responsible for loading to
 * RAM any sections that are required.
 */  

void alt_load (void)
{
    2408:	deffff04 	addi	sp,sp,-4
  /* 
   * Copy the .rwdata section. 
   */

  alt_load_section (&__flash_rwdata_start, 
    240c:	01000034 	movhi	r4,0
    2410:	21096b04 	addi	r4,r4,9644
    2414:	01400034 	movhi	r5,0
    2418:	29496a04 	addi	r5,r5,9640
    241c:	01800034 	movhi	r6,0
    2420:	31896b04 	addi	r6,r6,9644
 * there is no bootloader, so this application is responsible for loading to
 * RAM any sections that are required.
 */  

void alt_load (void)
{
    2424:	dfc00015 	stw	ra,0(sp)
  /* 
   * Copy the .rwdata section. 
   */

  alt_load_section (&__flash_rwdata_start, 
    2428:	00023e80 	call	23e8 <alt_load_section>

  /*
   * Copy the exception handler.
   */

  alt_load_section (&__flash_exceptions_start, 
    242c:	01000034 	movhi	r4,0
    2430:	21080804 	addi	r4,r4,8224
    2434:	01400034 	movhi	r5,0
    2438:	29480804 	addi	r5,r5,8224
    243c:	01800034 	movhi	r6,0
    2440:	31880804 	addi	r6,r6,8224
    2444:	00023e80 	call	23e8 <alt_load_section>

  /*
   * Copy the .rodata section.
   */

  alt_load_section (&__flash_rodata_start, 
    2448:	01000034 	movhi	r4,0
    244c:	21096a04 	addi	r4,r4,9640
    2450:	01400034 	movhi	r5,0
    2454:	29496a04 	addi	r5,r5,9640
    2458:	01800034 	movhi	r6,0
    245c:	31896a04 	addi	r6,r6,9640
    2460:	00023e80 	call	23e8 <alt_load_section>
  
  /*
   * Now ensure that the caches are in synch.
   */
  
  alt_dcache_flush_all();
    2464:	00025440 	call	2544 <alt_dcache_flush_all>
  alt_icache_flush_all();
}
    2468:	dfc00017 	ldw	ra,0(sp)
    246c:	dec00104 	addi	sp,sp,4
  /*
   * Now ensure that the caches are in synch.
   */
  
  alt_dcache_flush_all();
  alt_icache_flush_all();
    2470:	000255c1 	jmpi	255c <alt_icache_flush_all>

00002474 <alt_main>:
 * devices/filesystems/components in the system; and call the entry point for
 * the users application, i.e. main().
 */

void alt_main (void)
{
    2474:	deffff04 	addi	sp,sp,-4
#endif

  /* ALT LOG - please see HAL/sys/alt_log_printf.h for details */
  ALT_LOG_PRINT_BOOT("[alt_main.c] Entering alt_main, calling alt_irq_init.\r\n");
  /* Initialize the interrupt controller. */
  alt_irq_init (NULL);
    2478:	0009883a 	mov	r4,zero
 * devices/filesystems/components in the system; and call the entry point for
 * the users application, i.e. main().
 */

void alt_main (void)
{
    247c:	dfc00015 	stw	ra,0(sp)
#endif

  /* ALT LOG - please see HAL/sys/alt_log_printf.h for details */
  ALT_LOG_PRINT_BOOT("[alt_main.c] Entering alt_main, calling alt_irq_init.\r\n");
  /* Initialize the interrupt controller. */
  alt_irq_init (NULL);
    2480:	00024a80 	call	24a8 <alt_irq_init>
  ALT_LOG_PRINT_BOOT("[alt_main.c] Done OS Init, calling alt_sem_create.\r\n");
  ALT_SEM_CREATE (&alt_fd_list_lock, 1);

  /* Initialize the device drivers/software components. */
  ALT_LOG_PRINT_BOOT("[alt_main.c] Calling alt_sys_init.\r\n");
  alt_sys_init();
    2484:	00024a40 	call	24a4 <alt_sys_init>
   */

  ALT_LOG_PRINT_BOOT("[alt_main.c] Calling main.\r\n");

#ifdef ALT_NO_EXIT
  main (alt_argc, alt_argv, alt_envp);
    2488:	d1200217 	ldw	r4,-32760(gp)
    248c:	d1600317 	ldw	r5,-32756(gp)
    2490:	d1a00417 	ldw	r6,-32752(gp)
  close(STDOUT_FILENO);
  exit (result);
#endif

  ALT_LOG_PRINT_BOOT("[alt_main.c] After main - we should not be here?.\r\n");
}
    2494:	dfc00017 	ldw	ra,0(sp)
    2498:	dec00104 	addi	sp,sp,4
   */

  ALT_LOG_PRINT_BOOT("[alt_main.c] Calling main.\r\n");

#ifdef ALT_NO_EXIT
  main (alt_argc, alt_argv, alt_envp);
    249c:	00021581 	jmpi	2158 <main>

000024a0 <usleep>:
int ALT_USLEEP (useconds_t us)
#else
unsigned int ALT_USLEEP (unsigned int us)
#endif
{
  return alt_busy_sleep(us);
    24a0:	00024c81 	jmpi	24c8 <alt_busy_sleep>

000024a4 <alt_sys_init>:

void alt_sys_init( void )
{
    ALTERA_AVALON_JTAG_UART_INIT ( JTAG_UART_0, jtag_uart_0);
    ALTERA_AVALON_SYSID_QSYS_INIT ( SYSID, sysid);
}
    24a4:	f800283a 	ret

000024a8 <alt_irq_init>:
 * The "base" parameter is ignored and only
 * present for backwards-compatibility.
 */

void alt_irq_init ( const void* base )
{
    24a8:	deffff04 	addi	sp,sp,-4
    24ac:	dfc00015 	stw	ra,0(sp)
    ALTERA_NIOS2_QSYS_IRQ_INIT ( NIOS2_QSYS_0, nios2_qsys_0);
    24b0:	00025680 	call	2568 <altera_nios2_qsys_irq_init>
 * alt_irq_cpu_enable_interrupts() enables the CPU to start taking interrupts.
 */
static ALT_INLINE void ALT_ALWAYS_INLINE 
       alt_irq_cpu_enable_interrupts ()
{
    NIOS2_WRITE_STATUS(NIOS2_STATUS_PIE_MSK
    24b4:	00800044 	movi	r2,1
    24b8:	1001703a 	wrctl	status,r2
    alt_irq_cpu_enable_interrupts();
}
    24bc:	dfc00017 	ldw	ra,0(sp)
    24c0:	dec00104 	addi	sp,sp,4
    24c4:	f800283a 	ret

000024c8 <alt_busy_sleep>:
#include "alt_types.h"

#include "priv/alt_busy_sleep.h"

unsigned int alt_busy_sleep (unsigned int us)
{
    24c8:	defffe04 	addi	sp,sp,-8
  {
    cycles_per_loop = 3;
  }
  

  big_loops = us / (INT_MAX/
    24cc:	01420034 	movhi	r5,2048
    24d0:	297fffc4 	addi	r5,r5,-1
#include "alt_types.h"

#include "priv/alt_busy_sleep.h"

unsigned int alt_busy_sleep (unsigned int us)
{
    24d4:	dc000015 	stw	r16,0(sp)
    24d8:	dfc00115 	stw	ra,4(sp)
    24dc:	2021883a 	mov	r16,r4
  {
    cycles_per_loop = 3;
  }
  

  big_loops = us / (INT_MAX/
    24e0:	00023d80 	call	23d8 <__udivsi3>
  (ALT_CPU_FREQ/(cycles_per_loop * 1000000)));

  if (big_loops)
    24e4:	10000f26 	beq	r2,zero,2524 <alt_busy_sleep+0x5c>
    24e8:	0007883a 	mov	r3,zero
    24ec:	01200034 	movhi	r4,32768
    24f0:	213fffc4 	addi	r4,r4,-1
    24f4:	017e0034 	movhi	r5,63488
    24f8:	29400044 	addi	r5,r5,1
    24fc:	00000406 	br	2510 <alt_busy_sleep+0x48>
      /*
      * Do NOT Try to single step the asm statement below 
      * (single step will never return)
      * Step out of this function or set a breakpoint after the asm statements
      */
      __asm__ volatile (
    2500:	213fffc4 	addi	r4,r4,-1
    2504:	203ffe1e 	bne	r4,zero,2500 <alt_busy_sleep+0x38>
        "\n1:"
        "\n\t.pushsection .debug_alt_sim_info"
        "\n\t.int 4, 0, 0b, 1b"
        "\n\t.popsection"
        :: "r" (INT_MAX));
      us -= (INT_MAX/(ALT_CPU_FREQ/
    2508:	8161883a 	add	r16,r16,r5
  big_loops = us / (INT_MAX/
  (ALT_CPU_FREQ/(cycles_per_loop * 1000000)));

  if (big_loops)
  {
    for(i=0;i<big_loops;i++)
    250c:	18c00044 	addi	r3,r3,1
    2510:	18bffb16 	blt	r3,r2,2500 <alt_busy_sleep+0x38>
    /*
    * Do NOT Try to single step the asm statement below 
    * (single step will never return)
    * Step out of this function or set a breakpoint after the asm statements
    */
    __asm__ volatile (
    2514:	8004913a 	slli	r2,r16,4
    2518:	10bfffc4 	addi	r2,r2,-1
    251c:	103ffe1e 	bne	r2,zero,2518 <alt_busy_sleep+0x50>
    2520:	00000306 	br	2530 <alt_busy_sleep+0x68>
    /*
    * Do NOT Try to single step the asm statement below 
    * (single step will never return)
    * Step out of this function or set a breakpoint after the asm statements
    */
    __asm__ volatile (
    2524:	8004913a 	slli	r2,r16,4
    2528:	10bfffc4 	addi	r2,r2,-1
    252c:	00bffe16 	blt	zero,r2,2528 <alt_busy_sleep+0x60>
      "\n\t.popsection"
      :: "r" (us*(ALT_CPU_FREQ/(cycles_per_loop * 1000000))));
  }
#endif /* #ifndef ALT_SIM_OPTIMIZE */
  return 0;
}
    2530:	0005883a 	mov	r2,zero
    2534:	dfc00117 	ldw	ra,4(sp)
    2538:	dc000017 	ldw	r16,0(sp)
    253c:	dec00204 	addi	sp,sp,8
    2540:	f800283a 	ret

00002544 <alt_dcache_flush_all>:
/*
 * alt_dcache_flush_all() is called to flush the entire data cache.
 */

void alt_dcache_flush_all (void)
{
    2544:	0005883a 	mov	r2,zero
    2548:	00c20004 	movi	r3,2048
#if NIOS2_DCACHE_SIZE > 0
  char* i;
  
  for (i = (char*) 0; i < (char*) NIOS2_DCACHE_SIZE; i+= NIOS2_DCACHE_LINE_SIZE)
  { 
    __asm__ volatile ("flushd (%0)" :: "r" (i));
    254c:	1000003b 	flushd	0(r2)
void alt_dcache_flush_all (void)
{
#if NIOS2_DCACHE_SIZE > 0
  char* i;
  
  for (i = (char*) 0; i < (char*) NIOS2_DCACHE_SIZE; i+= NIOS2_DCACHE_LINE_SIZE)
    2550:	10800804 	addi	r2,r2,32
    2554:	10fffd1e 	bne	r2,r3,254c <alt_dcache_flush_all+0x8>
  { 
    __asm__ volatile ("flushd (%0)" :: "r" (i));
  }
#endif /* NIOS2_DCACHE_SIZE > 0 */
}
    2558:	f800283a 	ret

0000255c <alt_icache_flush_all>:
 */

void alt_icache_flush_all (void)
{
#if NIOS2_ICACHE_SIZE > 0
  alt_icache_flush (0, NIOS2_ICACHE_SIZE);
    255c:	0009883a 	mov	r4,zero
    2560:	01440004 	movi	r5,4096
    2564:	00025701 	jmpi	2570 <alt_icache_flush>

00002568 <altera_nios2_qsys_irq_init>:
 * To initialize the internal interrupt controller, just clear the IENABLE
 * register so that all possible IRQs are disabled.
 */
void altera_nios2_qsys_irq_init(void) 
{
    NIOS2_WRITE_IENABLE(0);
    2568:	000170fa 	wrctl	ienable,zero
}
    256c:	f800283a 	ret

00002570 <alt_icache_flush>:
  if (len > NIOS2_ICACHE_SIZE)
  {
    len = NIOS2_ICACHE_SIZE;
  }

  end = ((char*) start) + len;
    2570:	00840004 	movi	r2,4096
    2574:	2007883a 	mov	r3,r4
    2578:	1140012e 	bgeu	r2,r5,2580 <alt_icache_flush+0x10>
    257c:	100b883a 	mov	r5,r2
    2580:	194b883a 	add	r5,r3,r5
    2584:	00000206 	br	2590 <alt_icache_flush+0x20>

  for (i = start; i < end; i+= NIOS2_ICACHE_LINE_SIZE)
  { 
    __asm__ volatile ("flushi %0" :: "r" (i)); 
    2588:	1800603a 	flushi	r3
    len = NIOS2_ICACHE_SIZE;
  }

  end = ((char*) start) + len;

  for (i = start; i < end; i+= NIOS2_ICACHE_LINE_SIZE)
    258c:	18c00804 	addi	r3,r3,32
    2590:	197ffd36 	bltu	r3,r5,2588 <alt_icache_flush+0x18>
   * For an unaligned flush request, we've got one more line left.
   * Note that this is dependent on NIOS2_ICACHE_LINE_SIZE to be a 
   * multiple of 2 (which it always is).
   */

  if (((alt_u32) start) & (NIOS2_ICACHE_LINE_SIZE - 1))
    2594:	208007cc 	andi	r2,r4,31
    2598:	10000126 	beq	r2,zero,25a0 <alt_icache_flush+0x30>
  {
    __asm__ volatile ("flushi %0" :: "r" (i));
    259c:	1800603a 	flushi	r3
  /* 
   * Having flushed the cache, flush any stale instructions in the 
   * pipeline 
   */

  __asm__ volatile ("flushp");
    25a0:	0000203a 	flushp

#endif /* NIOS2_ICACHE_SIZE > 0 */
}
    25a4:	f800283a 	ret
